PSYC800_Unit1Project
…
Rows: 211 Columns: 105
── Column specification ────────────────────────────────────────────────────────
Delimiter: ","
chr  (9): ethnRace_7_TEXT, hometown_ind, situation_description, children_2, ...
dbl (95): ID, Nationality, condition, gen, age, ethnRace, choice_couple, cho...
lgl  (1): gen_2_TEXT

ℹ Use `spec()` to retrieve the full column specification for this data.
ℹ Specify the column types or set `show_col_types = FALSE` to quiet this message.

cm_data[, colSums(is.na(cm_data)) < nrow(cm_data)]

# A tibble: 211 × 104
      ID Nationality condi…¹   gen   age ethnR…² ethnR…³ homet…⁴ situa…⁵ choic…⁶
   <dbl>       <dbl>   <dbl> <dbl> <dbl>   <dbl> <chr>   <chr>   <chr>     <dbl>
 1    19           1      -1     1    48       2 <NA>    <NA>    A fami…       4
 2    60           1      -1     1    35       6 <NA>    <NA>    Two ne…       4
 3   109          -1      -1     1    40      NA <NA>    Chandi… Family…       4
 4   119          -1      -1     1    26      NA <NA>    Hydera… Actual…       4
 5   129          -1      -1     1    32      NA <NA>    Hydera… Weddin…       4
 6   153          -1      -1     1    40      NA <NA>    Nellore Marria…       4
 7   161          -1      -1     1    45      NA <NA>    Banglo… Absolu…       4
 8   199          -1      -1     1    20      NA <NA>    Ernaku… A Fami…       4
 9   207          -1      -1     1    50      NA <NA>    Visakh… It is …       4
10    12           1       1     0    34       6 <NA>    <NA>    A fami…       4
# … with 201 more rows, 94 more variables: choice_family <dbl>, tog_2 <dbl>,
#   suc_2 <dbl>, obligation_2 <dbl>, devotion_2 <dbl>, love_2 <dbl>,
#   compromise_2 <dbl>, reliance_2 <dbl>, connection_2 <dbl>, loyalty_2 <dbl>,
#   contentment_2 <dbl>, harmony_2 <dbl>, conflict_2 <dbl>, conflict_r_2 <dbl>,
#   dedication_2 <dbl>, happiness_2 <dbl>, sacrifice_2 <dbl>, lust_2 <dbl>,
#   commitment_2 <dbl>, satisfaction_2 <dbl>, passion_2 <dbl>, trust_2 <dbl>,
#   closeness_2 <dbl>, friendship_2 <dbl>, understanding_2 <dbl>, …
…
          o_satisfaction_10 = satisfaction_10 + happiness_10 + contentment_10,
          o_love_10 = love_10 + friendship_10 + adoration_10,
          o_intimacy_10 = intimacy_10 + closeness_10 + connection_10,
          o_respect_10 = loyalty_10 + respect_10 + understanding_10) |>
   select (Nationality, gen, choice_couple, choice_family, o_satisfaction_2, o_love_2, o_intimacy_2, o_respect_2, o_satisfaction_10, o_love_10, o_intimacy_10, o_respect_10) |> 
   filter(Nationality == 1) |> 
   print()

# A tibble: 102 × 12
   Natio…¹ gen   choic…² choic…³ o_sat…⁴ o_lov…⁵ o_int…⁶ o_res…⁷ o_sat…⁸ o_lov…⁹
     <dbl> <fct>   <dbl>   <dbl>   <dbl>   <dbl>   <dbl>   <dbl>   <dbl>   <dbl>
 1       1 Male        1       3       3       2       2       3       5       2
 2       1 Male        0       4       3       3       1       5       0       0
 3       1 Fema…       4       2      12      11      12      12      12      12
 4       1 Male        1       3       3       4       5       5       0       0
 5       1 Male        3       3       9       8       8       7       8       7
 6       1 Male        3       1       6       7       7       7       6       6
 7       1 Fema…       2       3      11       9      10       7      10       9
 8       1 Fema…       3       4      12      11       9      11      10       9
 9       1 Male        3       3      10      10       9       9      10      11
10       1 Fema…       1       2       5       4       4       7       1       5
# … with 92 more rows, 2 more variables: o_intimacy_10 <dbl>,
#   o_respect_10 <dbl>, and abbreviated variable names ¹​Nationality,
#   ²​choice_couple, ³​choice_family, ⁴​o_satisfaction_2, ⁵​o_love_2,
#   ⁶​o_intimacy_2, ⁷​o_respect_2, ⁸​o_satisfaction_10, ⁹​o_love_10
…
          o_satisfaction_10 = satisfaction_10 + happiness_10 + contentment_10,
          o_love_10 = love_10 + friendship_10 + adoration_10,
          o_intimacy_10 = intimacy_10 + closeness_10 + connection_10,
          o_respect_10 = loyalty_10 + respect_10 + understanding_10) |>
   select (Nationality, gen, -choice_couple, -choice_family, o_respect_2, o_respect_10)|> 
   filter(Nationality == -1) |> 
   print()

# A tibble: 109 × 4
   Nationality gen    o_respect_2 o_respect_10
         <dbl> <fct>        <dbl>        <dbl>
 1          -1 Female          12           10
 2          -1 Female           9            9
 3          -1 Female          12           12
 4          -1 Female           9            3
 5          -1 Female          10           10
 6          -1 Female           5            3
 7          -1 Female          10            8
 8          -1 Female          12           11
 9          -1 Male            11            9
10          -1 Male             9           10
# … with 99 more rows
…
